NaN NaN
428950 -283905
428405 -283077
427926 -282337
427449 -281668
426925 -281089
426402 -280510
425878 -279931
425355 -279352
424799 -278700
NaN NaN
44589.8 -58014
41889.4 -54558.4
40060 -51945
37330.4 -48634.7
34862.2 -45411.5
32510.1 -42072.1
30408.8 -38748
28068.5 -35633.3
25728.2 -32518.6
23391 -29563.2
20835.7 -26456.2
18309.5 -23262
15870.5 -20125.9
13692.8 -17018.9
11224.6 -14173.2
8611.33 -11124.2
6605.29 -7957.16
NaN NaN
167207 -128253
163116 -126796
159426 -125499
155817 -124120
152371 -122782
148883 -121484
144991 -120106
141625 -118970
137813 -117673
134164 -116375
130960 -114753
127620 -113914
123646 -113752
120240 -112981
116712 -111684
113487 -110652
110690 -109922
106250 -109228
102255 -108543
99132.9 -107205
95620.7 -105481
91930.7 -103899
88321.8 -101953
85019.9 -99712.4
82192 -97515.8
79580.9 -95016.7
76969.9 -92629.5
74284.3 -90316.8
71971.7 -88414.4
69025 -85430.3
66637.8 -82931.1
64101.4 -80170.9
61586.8 -77707
59063.4 -75290.7
56452.4 -72381.3
54027.9 -69658.3
51491.6 -66599.7
49328.3 -63839.4
46903.8 -60967.3
44591.1 -58020.5
NaN NaN
424801 -278703
422390 -275876
420924 -274162
418087 -271885
414098 -268512
406077 -261032
399817 -254088
394991 -249323
391084 -245791
388099 -242717
385584 -240119
382008 -236771
380049 -234731
377326 -232424
375455 -230803
NaN NaN
250732 -169330
249156 -168262
246298 -166552
242591 -164964
239205 -163261
235841 -161521
232449 -159853
228575 -158197
225664 -156541
222245 -154992
218936 -153146
215623 -151436
211990 -149620
208838 -147964
205339 -146174
201889 -144473
198156 -142690
195031 -141087
191558 -139484
188112 -137855
184560 -136279
181114 -134623
177695 -132886
174275 -131364
170776 -129761
167211 -128256
NaN NaN
6613.51 -7999.35
4795.04 -5247.03
4528.66 -3542.74
2513.6 -520.11
1186.6 1839.01
-1262.73 4570.16
-3892.16 7396.22
-6079.24 10246.8
-8389.22 13122
-10994.1 16095.5
-13500.7 18626.7
-16081 21575.6
NaN NaN
307039 -200184
306220 -199915
305470 -199666
304255 -199402
303819 -199008
302827 -198258
302231 -197853
301650 -197647
300977 -197289
300389 -196982
299517 -196720
298614 -196466
297776 -196165
296892 -195701
296185 -195471
295002 -194983
294052 -194730
293531 -194552
293147 -194386
292459 -193880
291778 -193492
290631 -193036
289992 -192766
289780 -192585
289279 -192332
288334 -191916
287468 -191480
286436 -190931
285731 -190519
284834 -190156
283328 -189428
282412 -189031
281532 -188482
280919 -188155
280131 -187718
279316 -187194
278482 -186750
277540 -186152
276798 -185755
275720 -185166
274579 -184440
273342 -183648
272320 -183121
270998 -182407
269915 -181734
269301 -181308
268599 -180717
267894 -180150
267480 -179964
266760 -179388
265694 -178802
265121 -178379
264173 -177747
263227 -177021
262361 -176453
261803 -175992
261311 -175660
260547 -175247
260010 -174937
259470 -174567
258943 -174217
258377 -173788
256846 -172844
255812 -172244
254898 -171741
254184 -171396
253616 -171042
253352 -170791
252467 -170368
251832 -170024
251247 -169659
250608 -169244
